<svg xmlns="http://www.w3.org/2000/svg" viewBox="0 0 38.75 50">
  <defs>
    <style>
      .cls-1 {
        fill: #fff;
      }

      .cls-1, .cls-2, .cls-3 {
        stroke: #34b7f8;
      }

      .cls-1, .cls-3 {
        stroke-width: 2px;
      }

      .cls-2 {
        fill: #34b7f8;
      }

      .cls-3, .cls-5 {
        fill: none;
      }

      .cls-4 {
        stroke: none;
      }
    </style>
  </defs>
  <g id="Group_8" data-name="Group 8" transform="translate(-281 -1327)">
    <g id="Rectangle_2540" data-name="Rectangle 2540" class="cls-1" transform="translate(281 1327)">
      <rect class="cls-4" width="38.75" height="50"/>
      <rect class="cls-5" x="1" y="1" width="36.75" height="48"/>
    </g>
    <g id="Rectangle_2541" data-name="Rectangle 2541" class="cls-2" transform="translate(288.5 1339.5)">
      <rect class="cls-4" width="8.75" height="11.25"/>
      <rect class="cls-5" x="0.5" y="0.5" width="7.75" height="10.25"/>
    </g>
    <line id="Line_4" data-name="Line 4" class="cls-3" x2="9.913" transform="translate(301.712 1341.375)"/>
    <line id="Line_8" data-name="Line 8" class="cls-3" x2="9.913" transform="translate(301.712 1348.875)"/>
    <line id="Line_9" data-name="Line 9" class="cls-3" x2="23.125" transform="translate(288.5 1356.375)"/>
    <line id="Line_10" data-name="Line 10" class="cls-3" x2="15.625" transform="translate(288.5 1363.875)"/>
  </g>
</svg>
