<svg xmlns="http://www.w3.org/2000/svg" viewBox="0 0 53.123 35.674">
  <defs>
    <style>
      .cls-1 {
        fill: #fff;
      }

      .cls-2 {
        fill: none;
        stroke: #34b7f8;
        stroke-width: 2px;
      }

      .cls-3, .cls-5 {
        fill: #34b7f8;
      }

      .cls-4, .cls-5 {
        stroke: none;
      }
    </style>
  </defs>
  <g id="Group_10" data-name="Group 10" transform="translate(-310.281 -1330.952)">
    <g id="Path_96" data-name="Path 96" class="cls-1" transform="translate(310.281 1366.625) rotate(-90)">
      <path class="cls-4" d="M 22.93563270568848 52.12277603149414 L 1.000003099441528 52.12277603149414 L 1.000003099441528 1.000006079673767 L 34.67386245727539 1.000006079673767 L 34.67386245727539 40.81246566772461 L 22.93563270568848 52.12277603149414 Z"/>
      <path class="cls-5" d="M 22.53225135803223 51.12277603149414 L 33.67386245727539 40.38733673095703 L 33.67386245727539 2.000006198883057 L 2.000003099441528 2.000006198883057 L 2.000003099441528 51.12277603149414 L 22.53225135803223 51.12277603149414 M 23.33901405334473 53.12277603149414 L 3.135986389679601e-06 53.12277603149414 L 3.135986389679601e-06 6.108398338255938e-06 L 35.67386245727539 6.108398338255938e-06 L 35.67386245727539 41.23759460449219 L 23.33901405334473 53.12277603149414 Z"/>
    </g>
    <line id="Line_5" data-name="Line 5" class="cls-2" x2="13.959" transform="translate(320.257 1346.321)"/>
    <line id="Line_6" data-name="Line 6" class="cls-2" x2="29.751" transform="translate(320.257 1354.78)"/>
    <path id="Path_97" data-name="Path 97" class="cls-3" d="M0,0,13.712,13.712H0Z" transform="translate(349.691 1330.952)"/>
  </g>
</svg>
