<svg xmlns="http://www.w3.org/2000/svg" viewBox="0 0 38.189 52.665">
  <defs>
    <style>
      .cls-1, .cls-2 {
        fill: none;
        stroke: #34b7f8;
      }

      .cls-1 {
        stroke-width: 2px;
      }

      .cls-2 {
        stroke-width: 3px;
      }
    </style>
  </defs>
  <g id="Group_9" data-name="Group 9" transform="translate(-316.999 -1724.431)">
    <path id="Union_1" data-name="Union 1" class="cls-1" d="M11.357,44.094C6.487,40.82,1.089,37.748,1.089,28.464V4.887H0q.553,0,1.089-.011V4.834H2.309C13.791,4.31,19.141,0,19.141,0S24.121,4.2,35.3,4.834h1.726V4.9q.57.013,1.158.013H37.03c.017,1.1.2,13.287,0,23.55-.209,10.757-6.362,13.82-11.064,16.39A33.17,33.17,0,0,0,19.113,50,93.358,93.358,0,0,0,11.357,44.094Z" transform="translate(317 1725.727)"/>
    <path id="Path_100" data-name="Path 100" class="cls-2" d="M450.31,2743.254l6.92,6.357,11.179-16.3" transform="translate(-122 -992)"/>
  </g>
</svg>
