<svg xmlns="http://www.w3.org/2000/svg" xmlns:xlink="http://www.w3.org/1999/xlink" width="399.993" height="375.929" viewBox="0 0 399.993 375.929">
  <defs>
    <linearGradient id="linear-gradient" x1="0.5" x2="0.5" y2="1" gradientUnits="objectBoundingBox">
      <stop offset="0" stop-color="#6dcfff"/>
      <stop offset="1" stop-color="#38a7dd"/>
    </linearGradient>
  </defs>
  <g id="Group_29" data-name="Group 29" transform="translate(-650.007 -2238.363)">
    <path id="Path_172" data-name="Path 172" d="M185.463-37.637c76.452,0,113.792,15.914,162.358,75.58C372.783,68.61,429,112.32,429,149.914c0,110.9-85.885,142.763-201.548,142.763S29.007,302.333,29.007,191.436c0-30.607,25.841-63.043,34.221-93.775C85.047,17.639,101.723-37.637,185.463-37.637Z" transform="translate(621 2276)" fill="url(#linear-gradient)"/>
    <path id="Path_168" data-name="Path 168" d="M-1249.911,3713.87c-3.823,1.7-8.07,3.823-8.919,9.769s-18.262,65.83-18.262,65.83" transform="translate(2006.688 -1191.732)" fill="none" stroke="#223645" stroke-width="4"/>
    <path id="Path_169" data-name="Path 169" d="M-1179.864,3726.249l13.725,84.091" transform="translate(1975.359 -1205.726)" fill="none" stroke="#223645" stroke-width="4"/>
    <path id="Path_170" data-name="Path 170" d="M0,0,14.048,74.487" transform="translate(843.58 2489.896) rotate(-11)" fill="none" stroke="#223645" stroke-width="4"/>
    <path id="Path_171" data-name="Path 171" d="M0,0,11.691,67.158" transform="matrix(0.974, -0.225, 0.225, 0.974, 912.721, 2493.726)" fill="none" stroke="#223645" stroke-width="4"/>
    <g id="Group_27" data-name="Group 27" transform="translate(710.929 2380.208)">
      <path id="Path_164" data-name="Path 164" d="M-1260.376,3642.551s13.168,18.324,37.7,8.808,98.538-46.06,98.538-46.06l4.247-91.476s-14.375-11.434-55.212-11.761-125.78,7.187-127.086,17.642S-1260.376,3642.551-1260.376,3642.551Z" transform="translate(1302.214 -3502.052)" fill="#e4436a"/>
      <path id="Path_165" data-name="Path 165" d="M-1228.688,3547.03l27.116,94.743,93.109-36.263v-81.675s-25.483-14.7-81.675-6.534S-1228.688,3547.03-1228.688,3547.03Z" transform="translate(1277.049 -3507.676)" fill="#b32245"/>
      <path id="Path_166" data-name="Path 166" d="M-1380.007,3517.9l-18.885,7.986-25.964-91.5s-1.717-12.1,15.272-8.506S-1380.007,3517.9-1380.007,3517.9Z" transform="translate(1460.955 -3387.271)" fill="none" stroke="#b32245" stroke-width="2"/>
      <path id="Path_167" data-name="Path 167" d="M-1211.558,3385.542s-7.83-3.267-13.861,4.775" transform="translate(1393.886 -3373.712)" fill="none" stroke="#707070" stroke-width="1"/>
    </g>
    <g id="Group_28" data-name="Group 28" transform="translate(717.207 2298.811)">
      <path id="Path_157" data-name="Path 157" d="M-1029.413,3787.751l1.915,18.945,24.358,5.993s-.193-7.926,1.547-5.993-9.666-2.9-11.019-18.945S-1029.413,3787.751-1029.413,3787.751Z" transform="translate(1206.209 -3510.33)" fill="#f390a7"/>
      <path id="Path_156" data-name="Path 156" d="M-1167.845,3632.431s15.76,18.326,38.363,14.46,45.653,0,45.653,0l5.651,66.1,17.4,1.339,6.543-4.907-2.528-80.9s-.595-5.949-8.774-6.246-40.448-3.42-40.448-3.42l26.767-9.518-8.068,9.518,16.209.782,1.338,5.8,42.381-40.151s12.937-21.711-3.42-25.726-46.4,11.9-46.4,11.9L-1126.5,3585.6s3.681,13.99-15.576,30.69S-1167.845,3632.431-1167.845,3632.431Z" transform="translate(1252.751 -3435.791)" fill="#237fad"/>
      <path id="Path_154" data-name="Path 154" d="M-20.093-1.191,29.648-3.542-17.113,33.533-59.762,32Z" transform="translate(191.852 134.992)" fill="#a4abb1"/>
      <path id="Path_151" data-name="Path 151" d="M-1114.213,3513l17.4,30.738s13.55,9.1,19.371,10.051,12.183,1.692,12.183,1.692l4.4,10.3-5.181,1.023s-6.687-7.508-7.654-4.414,2.087,3.075,2.782,4.937,0,2.513,0,2.513-10.826-4.64-11.6-8.313c-.159-.757,1.616-.828-1.428.284a14.067,14.067,0,0,1-6.3.578s-28.7-2.5-38.476-33.726,3.093-17.592,3.093-17.592Z" transform="translate(1240.163 -3420.035)" fill="#f390a7"/>
      <g id="Group_26" data-name="Group 26" transform="translate(67.772 6.412)">
        <path id="Path_148" data-name="Path 148" d="M17.013,0c9.715,0,17.521,1.756,17.521,17.7,0,9.233-3.5,20.481-7.733,25.924-2.864,3.686-4.241,7.148-8.331,7.148-5.139,0-12.425-4.937-15.728-10.864C-.034,34.932,0,28.235,0,20.724,0,4.777,7.3,0,17.013,0Z" transform="matrix(0.996, 0.087, -0.087, 0.996, 14.922, 0)" fill="#f390a7"/>
        <path id="Path_147" data-name="Path 147" d="M-1177.966,3418.306l-14.692,20.878,7.153,29.384s16.432,3.48,16.432,1.547-7.153-21.651-7.153-21.651v-5.992s5.606-.581,9.666,2.319S-1177.966,3418.306-1177.966,3418.306Z" transform="translate(1192.658 -3394.928)" fill="#f390a7"/>
        <path id="Path_152" data-name="Path 152" d="M-1174.89,3412.034s-8.664-.677-2.166,9.07S-1174.89,3412.034-1174.89,3412.034Z" transform="translate(1188.888 -3392.817)" fill="#f390a7"/>
      </g>
      <path id="Path_149" data-name="Path 149" d="M-1278.682,3477.044a127.138,127.138,0,0,1,35.475-27.353l22.008-1.189s9.815,29.592,12.789,28.105,3.123-18.439,3.123-18.439,22.008,8.327,26.618,8.922,15.465,24.834,15.465,24.834.427,6.381-9.068,10.156a15.354,15.354,0,0,1-5.727,1.354s1.8,35.381,14.044,44.075c1.3.921,1.093,3.449,1.25,5.9-1.333,15.565-9.749,24.284-19.88,30.749-4.3,2.743-15.345,9.919-20.509,11.3a5.856,5.856,0,0,1-3.219.145s-17.6-24.455-27.83-44.344a293.849,293.849,0,0,1-16.5-39.418l-5.491-20.018a19.326,19.326,0,0,0-7.435-10.753c-5.929-3.993-9.6-4.028-9.639-4.025S-1278.682,3477.044-1278.682,3477.044Z" transform="translate(1289.352 -3398.668)" fill="#eff2f5"/>
      <path id="Path_150" data-name="Path 150" d="M-1286.828,3491.2s8.866-.466,15.043,3.052,9.665,11.018,9.665,11.018l-1.144,2.059s23.339,2.664,35.922,6.447,13.976,6.676,13.976,6.676,5.4,7.283,10.033,14.042c3.309,4.831,6.267,9.027,6.758,9.469,1.144,1.03,4.69,15.671,4.69,15.671s-1.716,1.487-3.089,0-3.089-8.465-3.089-8.465h-.6a18.886,18.886,0,0,0-.681,3.4c-.32,2.393-.6,6.168-.6,6.168s-1.884,2.76-3.828,2.96-4.261-1.634-4.261-1.634,1.185-10.333.616-14.362-3.567-3.742-6.655-5.458-6.52-14.185-6.52-14.185-35-2.287-45.755-2.631-33.63-6.063-31.228-16.7S-1286.828,3491.2-1286.828,3491.2Z" transform="translate(1297.756 -3413.017)" fill="#f390a7"/>
      <path id="Path_155" data-name="Path 155" d="M0,2.011,42.212,3.45V6.124L0,4.326Z" transform="translate(131.932 164.987)" fill="#929ba2"/>
      <path id="Path_153" data-name="Path 153" d="M-8.4-20.236,43.756-53.409V-2.957L-3.948,36.65Z" transform="translate(177.902 134.5)" fill="#b7c2ca"/>
      <path id="Path_158" data-name="Path 158" d="M-1028.345,3817.522c.836.229,24.322,6.908,24.322,6.908s-2.059-5.948,1.03-5.948,11.423,8.709,19.207,10.74,11.1,3.181,11.574,5.889-34.184,1.569-34.184,1.569l-24.737-1.569s-.99-5.614,0-9.311S-1028.345,3817.522-1028.345,3817.522Z" transform="translate(1206.935 -3522.737)" fill="#13668f"/>
      <path id="Path_159" data-name="Path 159" d="M-1047.814,3651.9l-5.5,9.369s4.461-1.487,10.112,2.974,13.235,2.826,13.235,2.826l-.744-2.826s-6.246-3.569-1.041-7.881a4.452,4.452,0,0,0,.565-.756l-.784-3.674s-6.918-.38-10.933-.38S-1047.814,3651.9-1047.814,3651.9Z" transform="translate(1214.245 -3468.928)" fill="#f390a7"/>
      <path id="Path_160" data-name="Path 160" d="M-1054.908,3665.053l-4.907,5.651s3.569-4.015,14.871,2.974c2.893,1.789,7.907.427,7.907.427l4.584-1.766a30.731,30.731,0,0,1,11.726-2.4c6.563,0,14.527,2.4,14.527,2.4a64.518,64.518,0,0,0-12.7-3.872,47.92,47.92,0,0,0-13.944-.264l.4,3.336s-12.253-1.338-14.075-4.722S-1054.908,3665.053-1054.908,3665.053Z" transform="translate(1215.767 -3473.336)" fill="#13668f"/>
      <path id="Path_161" data-name="Path 161" d="M-1046.877,3676.129s-12.231-7.831-15.047-.88,4.048,10.031,4.048,10.031h8.975s11.527,1.583,15.4,4.312,19.27-.792,19.27-.792a12.231,12.231,0,0,0,8.657-9.74,5.02,5.02,0,0,0-2.958-4.414c-6.1-3.043-20.685-1.116-20.685-1.116a21.446,21.446,0,0,0-3.817,1.116,13.791,13.791,0,0,0-3.045,1.719,10.583,10.583,0,0,1-4.384.735A36.788,36.788,0,0,1-1046.877,3676.129Z" transform="translate(1217.367 -3476.591)" fill="#86cbee"/>
      <path id="Path_162" data-name="Path 162" d="M-594.983,3813.369s14.359,1.338,29.385,1.8a226.044,226.044,0,0,0,29.615-1.29l-.061,2.094s-15.324.939-30.028.939-28.82-1.2-28.82-1.2Z" transform="translate(770.737 -3501.427)" fill="#223645"/>
      <path id="Path_163" data-name="Path 163" d="M-1172.071,3390.787a39.285,39.285,0,0,0,18.759,3.432c10.752-.686,6.048,2.173,9.984,1.514s3.623-1.174,6.368-4.606,2.636-8.575,2.636-8.575a28.852,28.852,0,0,1-4.126,0,22.505,22.505,0,0,1-3.767-.687s-11.2-7.138-20.871-7.338c-3.605-.075-9.161-.41-12.183.812a9.42,9.42,0,0,0-5.609,5.726s-3.593.823-5.423,2.4a5.816,5.816,0,0,0-1.9,3.895,66.228,66.228,0,0,0,0,12.959,99.636,99.636,0,0,0,2.86,14.379l3.432-3.66s1.341-1.511,1.15-2.5c-.129-.666-1.9-2.761-2.26-4.448a2.844,2.844,0,0,1,1.659-3.527c1.368-.788,2.75.021,4.249,1.477a5.392,5.392,0,0,1,1.648,3.065,37.915,37.915,0,0,0,2.2-6.488A61.183,61.183,0,0,0-1172.071,3390.787Z" transform="translate(1260.365 -3374.427)" fill="#223645"/>
    </g>
    <ellipse id="Ellipse_202" data-name="Ellipse 202" cx="3.319" cy="4.647" rx="3.319" ry="4.647" transform="matrix(0.995, -0.105, 0.105, 0.995, 913.055, 2418.976)" fill="#eff2f5"/>
  </g>
</svg>
