<svg xmlns="http://www.w3.org/2000/svg" xmlns:xlink="http://www.w3.org/1999/xlink" width="416.584" height="389" viewBox="0 0 416.584 389">
  <defs>
    <linearGradient id="linear-gradient" x1="0.321" y1="1.025" x2="0.646" gradientUnits="objectBoundingBox">
      <stop offset="0" stop-color="#6dcfff"/>
      <stop offset="1" stop-color="#38a7dd"/>
    </linearGradient>
    <linearGradient id="linear-gradient-2" x1="0.404" y1="0.358" x2="0.627" y2="0.681" gradientUnits="objectBoundingBox">
      <stop offset="0" stop-color="#65c6f6"/>
      <stop offset="1" stop-color="#339dd1"/>
    </linearGradient>
    <linearGradient id="linear-gradient-3" x1="0.654" y1="-0.02" x2="0.373" y2="0.817" gradientUnits="objectBoundingBox">
      <stop offset="0" stop-color="#237fad"/>
      <stop offset="1" stop-color="#13668f"/>
    </linearGradient>
    <linearGradient id="linear-gradient-4" x1="0.5" x2="0.896" y2="0.729" gradientUnits="objectBoundingBox">
      <stop offset="0" stop-color="#4bb5e9"/>
      <stop offset="1" stop-color="#237fad"/>
    </linearGradient>
    <linearGradient id="linear-gradient-5" x1="0.347" y1="0.57" x2="0.754" y2="0.809" gradientUnits="objectBoundingBox">
      <stop offset="0" stop-color="#65c6f6"/>
      <stop offset="1" stop-color="#42a9dc"/>
    </linearGradient>
  </defs>
  <g id="Group_25" data-name="Group 25" transform="translate(-132.37 -1767.543)">
    <g id="Group_24" data-name="Group 24" transform="translate(132.37 1767.543)">
      <path id="Path_146" data-name="Path 146" d="M54.7-11.707c11.259,0,31.561,10.731,40.332,19.649,7.738,7.866-2.8,30.053-7.747,49.366-3.623,14.139-7.827,29.071-7.827,40.443,0,12.293-13.259,25.127-21.51,31.025C38.041,143,19.328,135.5-1.577,135.5c-29.319,0-15.912-13.579-15.912-56.411,0-15.162,6.529-56.668,11.789-68.874C3.586-11.332,35.755-11.707,54.7-11.707Z" transform="translate(228.357 46.561)" fill="#237fad"/>
      <path id="Path_139" data-name="Path 139" d="M212.6,0C329.117,0,427.526,43.686,437.568,103.94s-178.112,81.521-294.625,81.521-137.328-34.2-111.986-91.8S96.092,0,212.6,0Z" transform="translate(-21.37 203.539)" fill="url(#linear-gradient)"/>
      <path id="Path_110" data-name="Path 110" d="M28.636,3.175,31.994,0,2.247,103.7,0,101.932Z" transform="translate(65.642 193.924) rotate(-1)" fill="#223645"/>
      <path id="Path_143" data-name="Path 143" d="M26.109.961,30.093,0,1.737,109.473,0,108.47Z" transform="matrix(0.899, -0.438, 0.438, 0.899, 230.266, 199.557)" fill="#237fad"/>
      <path id="Path_145" data-name="Path 145" d="M26.109.961,30.093,0,1.737,109.473,0,108.47Z" transform="translate(176.082 152.157) rotate(16)" fill="#237fad"/>
      <path id="Path_144" data-name="Path 144" d="M26.109.961,30.093,0,1.737,109.473,0,108.47Z" transform="translate(254.679 166.403) rotate(-41)" fill="#237fad"/>
      <path id="Path_114" data-name="Path 114" d="M13.65,4.613,17.793,0,1.958,109.917H0Z" transform="matrix(0.995, 0.105, -0.105, 0.995, 261.112, 204.651)" fill="#223645"/>
      <path id="Path_111" data-name="Path 111" d="M38.97,0l2.172,3.091L1.791,98.984,0,97.95Z" transform="matrix(0.848, -0.53, 0.53, 0.848, 65.37, 222.307)" fill="#223645"/>
      <path id="Path_112" data-name="Path 112" d="M26.109.961,30.093,0,1.737,109.473,0,108.47Z" transform="translate(253.01 219.509) rotate(-24)" fill="#223645"/>
      <path id="Path_113" data-name="Path 113" d="M26.109.961,30.093,0,1.737,109.473,0,108.47Z" transform="translate(277.959 168.034) rotate(-31)" fill="#223645"/>
      <path id="Path_115" data-name="Path 115" d="M13.086.753,16.1,0,2.636,48.765H0Z" transform="translate(120.839 203.933) rotate(7)" fill="#223645"/>
      <path id="Path_129" data-name="Path 129" d="M13.086.753,16.1,0,2.636,48.765H0Z" transform="matrix(0.998, -0.07, 0.07, 0.998, 270.311, 202.583)" fill="#135475"/>
      <path id="Path_128" data-name="Path 128" d="M13.086.753,16.1,0,2.636,48.765H0Z" transform="translate(137.162 214.793) rotate(-30)" fill="#223645"/>
      <path id="Path_123" data-name="Path 123" d="M-1432.533,3275.758c25.006-73.135,57.2-71.758,57.2-71.758l3.788,14.682s-34.72,59.01-47.767,66.01S-1432.533,3275.758-1432.533,3275.758Z" transform="translate(1619.121 -3135.256)" fill="url(#linear-gradient-2)"/>
      <path id="Path_124" data-name="Path 124" d="M3.758-10.35l11.768-6.967,14.816,2.085,25.274,9.68L40.642,55.293H-30.3Z" transform="translate(232.799 91.307)" fill="#65c6f6"/>
      <g id="Group_21" data-name="Group 21" transform="translate(89.656 143.217)">
        <path id="Path_135" data-name="Path 135" d="M28.608,9.014,15.284,21.358,0,18.027,21.946,0Z" transform="translate(35.736 145.604) rotate(-22)" fill="#f390a7"/>
        <path id="Path_131" data-name="Path 131" d="M99.9,0l23.693,15.521L13.776,139.273,0,126.359Z" transform="translate(27.755 19.334) rotate(-9)" fill="url(#linear-gradient-3)"/>
        <path id="Path_132" data-name="Path 132" d="M14.3-3,50.63.411l-140.4,121.751-12.484-13.776Z" transform="translate(149.461 19.301)" fill="#237fad"/>
        <path id="Path_133" data-name="Path 133" d="M-1479.132,3428.332l-13.324,12.345-15.284-3.332,21.946-18.027Z" transform="translate(1536.201 -3290.084)" fill="#f390a7"/>
        <path id="Path_136" data-name="Path 136" d="M21.332,0S25.446,7.95,32.3,5.206c1.865-.746,1.706,2.951,2.007,4.605.618,3.154-2.608,9.747-2.608,9.747S21.358,24.223,19.79,34.608-7.584,39.979,2.214,26.655C4.6,23.4,5.66,23.948,6.963,21.747c3.339-5.631,5.7-10.66,5.7-10.66Z" transform="matrix(0.788, 0.616, -0.616, 0.788, 24.731, 122.659)" fill="url(#linear-gradient-4)"/>
        <g id="Group_20" data-name="Group 20" transform="translate(22.619 148.99)">
          <path id="Path_138" data-name="Path 138" d="M-1477.471,3446.908c.731-.043,1.018,3.054,1.4,4.2.861,2.427-.3,6.483-1.4,9.485-1.748,4.769-3,3.393-3,3.393l-31.962-22.538a12.906,12.906,0,0,1,6.986-4.711,8.335,8.335,0,0,1,4.872,1.1c2.95,1.985,6.1,6.32,7.206,6.343,5.681.115,3.641-.845,3.641-.845S-1485.356,3447.372-1477.471,3446.908Z" transform="translate(1512.939 -3436.693)" fill="#49b2e6"/>
          <path id="Path_137" data-name="Path 137" d="M-1506.095,3445.758s3.635-1.514,14.876,9.055a54.484,54.484,0,0,0,14.4,10.7c2.686,1.45,3.314,1.708,3.98,2.345.032,1.73-9.141,1.48-12.792.765s-3.169-3.021-8.294-6.444a70.942,70.942,0,0,1-8.109-5.99c-1.162-.43-4.2-4.549-4.466-7.277C-1506.741,3446.565-1506.095,3445.758-1506.095,3445.758Z" transform="translate(1506.555 -3440.921)" fill="#223645"/>
        </g>
      </g>
      <path id="Path_125" data-name="Path 125" d="M-1346.725,3282.6a51.4,51.4,0,0,1-12.638,7.381c-12.829,4.826-13.236-7.381-13.236-7.381l47.831-58.477S-1321.483,3263.623-1346.725,3282.6Z" transform="translate(1612.841 -3139.977)" fill="url(#linear-gradient-5)"/>
      <g id="Group_18" data-name="Group 18" transform="translate(69.719 132.161) rotate(3)">
        <path id="Path_101" data-name="Path 101" d="M61.692,5.282,242.641,0,223,74.323,0,70.733Z" transform="translate(0 0.195)" fill="#e4436a"/>
        <rect id="Rectangle_2554" data-name="Rectangle 2554" width="223.429" height="4.616" transform="translate(0.023 70.863)" fill="#aa1b3e"/>
        <path id="Path_102" data-name="Path 102" d="M0,0,78.121.757l-3.03,2.209L1.382,5.156Z" transform="matrix(0.259, -0.966, 0.966, 0.259, 221.692, 75.459)" fill="#aa1b3e"/>
      </g>
      <g id="Group_22" data-name="Group 22" transform="translate(143.275 148.296)">
        <path id="Path_130" data-name="Path 130" d="M.172-15.835,92.5-5.419,63.882,13.756-12.432-2.1Z" transform="translate(13.46 15.835)" fill="#b7c2ca"/>
        <path id="Path_140" data-name="Path 140" d="M8.448,6.039l.4,2.362L-20.26,29.454V25.061Z" transform="translate(97.502 4.395)" fill="#a4abb1"/>
        <path id="Path_141" data-name="Path 141" d="M-9.1-1.083,67.836,14.944v4.31L-9.446,1.086Z" transform="translate(9.446 14.558)" fill="#a4abb1"/>
      </g>
      <g id="Group_17" data-name="Group 17" transform="translate(242.962 156.561) rotate(7)">
        <path id="Path_109" data-name="Path 109" d="M0,6.2,23.992,0,41.159,33.3,6.412,41.78Z" transform="translate(0 8.445)" fill="#e0e5eb"/>
        <path id="Path_108" data-name="Path 108" d="M0,7.343,29.965,0,46.242,30.106,11.485,39.53Z" transform="translate(8.317 0)" fill="#eff2f5"/>
      </g>
      <path id="Path_127" data-name="Path 127" d="M-1309.91,3290.43s-19.018-1.131-23.174-6.187,14.183-6.085,14.183-6.085Z" transform="translate(1611.536 -3140.948)" fill="#3da5d8"/>
      <path id="Path_126" data-name="Path 126" d="M-1346.8,2887.727l-50.179,15.113-6.716,4.546-3.2-10.053,11.627-1.958,28.393-13.34s10.244-3.345,14.895,1.55S-1346.8,2887.727-1346.8,2887.727Z" transform="translate(1641.158 -2745.776)" fill="#f390a7"/>
      <path id="Path_121" data-name="Path 121" d="M-1279.021,2851.229l-5.914,43.89s21.76,2.462,28.75,11.873c1.1,1.487.9-2.08,2.367-7.71,4.406-18.48,6.534-29.269-1.518-55.317-2.668-8.631-16.274-13.183-25.816-22C-1325.739,2780.76-1279.021,2851.229-1279.021,2851.229Z" transform="translate(1557.281 -2757.801)" fill="#65c6f6"/>
      <path id="Path_118" data-name="Path 118" d="M-1318.866,2830.732l31.731,3.344,7.246-56.735-40.631,4.406Z" transform="translate(1556.976 -2748.906)" fill="#152430"/>
      <g id="Group_19" data-name="Group 19" transform="matrix(0.996, 0.087, -0.087, 0.996, 239.031, 1.588)">
        <path id="Path_116" data-name="Path 116" d="M8.413,10.421,20.337,0l1.33,44.306L0,51.957Z" transform="translate(12.469 25.08) rotate(-9)" fill="#f390a7"/>
        <path id="Path_119" data-name="Path 119" d="M15.469,0C24.137,0,35.4,13.676,35.4,26.168S22.588,48.3,13.92,48.3,0,32.035,0,19.543,6.8,0,15.469,0Z" transform="matrix(0.998, -0.07, 0.07, 0.998, 0, 2.47)" fill="#f390a7"/>
      </g>
      <path id="Path_122" data-name="Path 122" d="M-1379.825,3208.137s14.63-9.02,23.1-6.936,18.606,0,18.606,0l2.787,21.893-45.037,2.252Z" transform="translate(1610.448 -3135.018)" fill="#65c6f6"/>
      <path id="Path_104" data-name="Path 104" d="M0,0H39.04V2.945H0Z" transform="translate(121.915 174.28)" fill="#a4abb1"/>
      <g id="Group_23" data-name="Group 23" transform="translate(98.85 87.558)">
        <ellipse id="Ellipse_200" data-name="Ellipse 200" cx="19.52" cy="4.712" rx="19.52" ry="4.712" transform="translate(23.065 84.77)" fill="#a4abb1"/>
        <ellipse id="Ellipse_199" data-name="Ellipse 199" cx="19.52" cy="4.712" rx="19.52" ry="4.712" transform="translate(23.065 82.077)" fill="#b7c2ca"/>
        <path id="Path_107" data-name="Path 107" d="M0,.961,2.814,0,96.949,4.467l5.4,69.321L4.365,60.5Z" transform="translate(0.132 5.356) rotate(-3)" fill="#a4abb1"/>
        <path id="Path_103" data-name="Path 103" d="M0,0,94.439,5.545l5.9,66.357L4.114,59.561Z" transform="translate(0 6.217) rotate(-3)" fill="#b7c2ca"/>
        <path id="Path_106" data-name="Path 106" d="M7.974,0H16.7L13.028,39.626,0,38.783Z" transform="translate(34.043 47.771) rotate(-3)" fill="#a4abb1"/>
        <path id="Path_105" data-name="Path 105" d="M6.625,0h8.73L11.679,39.626,0,38.87Z" transform="translate(33.89 47.779) rotate(-3)" fill="#b7c2ca"/>
      </g>
      <path id="Path_117" data-name="Path 117" d="M11.781,13.688s9.153,14.706,19.287,16.774c.9.184-.739-.832,0,0-.6,34.826,7.155,42.771,7.155,42.771l15.15-11.426L49.625,27.6S48.058,9.309,39,3.9c-16.8-8.168-28.768-2.579-34.48,8.125C-1.5,23,.232,48.814.232,48.814L1.24,63.22l5.83,7.935A73.936,73.936,0,0,1,5.328,55.69c-.091-8.763-.663-21.294.023-31.736C7.126,15.628,11.781,13.688,11.781,13.688Z" transform="matrix(0.998, 0.07, -0.07, 0.998, 236.774, 0)" fill="#223645"/>
      <path id="Path_142" data-name="Path 142" d="M-1384.785,3293.535s-7.5,0-13.113,4.636-6.4,6.4-6.4,6.4.914,5.584,6.147,2.572a23.913,23.913,0,0,1,6.9-2.188c1.53-.37,5.485-.021,8.892-2.327C-1375.981,3298.314-1384.785,3293.535-1384.785,3293.535Z" transform="translate(1621.382 -3142.127)" fill="#f390a7"/>
    </g>
    <ellipse id="Ellipse_201" data-name="Ellipse 201" cx="3.121" cy="4.161" rx="3.121" ry="4.161" transform="matrix(0.995, -0.105, 0.105, 0.995, 274.193, 1880.815)" fill="#eff2f5"/>
  </g>
</svg>
