<svg xmlns="http://www.w3.org/2000/svg" viewBox="0 0 2625 2626">
  <defs>
    <style>
      .cls-1 {
        fill: #db6700;
      }

      .cls-1, .cls-3 {
        fill-rule: evenodd;
      }

      .cls-2, .cls-3 {
        fill: #fff;
      }
    </style>
  </defs>
  <g id="Деньги" transform="translate(-6693 -9999)">
    <g id="_1865214924272">
      <path id="Path_1" data-name="Path 1" class="cls-1" d="M9318,11312c0-725-588-1313-1313-1313s-1312,588-1312,1313,587,1313,1312,1313S9318,12037,9318,11312Z"/>
      <circle id="Ellipse_1" data-name="Ellipse 1" class="cls-2" cx="139" cy="139" r="139" transform="translate(7866 10139)"/>
      <path id="Path_2" data-name="Path 2" class="cls-2" d="M7622,10298c24-9,51,3,60,27s-3,51-27,60c-190,72-352,200-465,364-111,160-175,354-175,563,0,274,111,521,290,700,179,180,427,291,700,291,274,0,521-111,701-291,179-179,290-426,290-700,0-209-65-403-175-563a999.412,999.412,0,0,0-466-364c-24-9-36-36-27-60s36-36,60-27a1086.411,1086.411,0,0,1,509,399c121,175,192,387,192,615,0,299-121,570-318,766-196,196-467,318-766,318s-570-122-766-318-317-467-317-766c0-228,70-440,191-615C7238,10517,7415,10377,7622,10298Z"/>
      <path id="Path_3" data-name="Path 3" class="cls-3" d="M7428,11785h204v175c0,8,3,15,8,21,6,5,13,8,21,8h152c8,0,15-3,21-8q9-9,9-21v-175h460q12,0,21-9c5-5,8-12,8-21v-116c0-9-3-16-8-21-5-6-13-9-21-9H7842v-107h311q181.5,0,297-111c77-74,116-170,116-288,0-117-39-213-116-287s-176-111-297-111H7661c-8,0-15,3-21,8-5,6-8,13-8,21v574H7428c-9,0-16,3-21,8q-9,9-9,21v136q0,12,9,21c5,5,12,8,21,8h204v107H7428q-13.5,0-21,9-9,7.5-9,21v116q0,13.5,9,21Q7414.5,11785,7428,11785Zm414-886h292q97.5,0,156,57c40,37,59,87,59,147,0,61-19,110-59,148q-58.5,57-156,57H7842Z"/>
    </g>
  </g>
</svg>
