<svg xmlns="http://www.w3.org/2000/svg" viewBox="0 0 1876.354 2178">
  <defs>
    <style>
      .cls-1 {
        fill: #959595;
      }

      .cls-1, .cls-2, .cls-3 {
        fill-rule: evenodd;
      }

      .cls-2 {
        fill: #1d1d1d;
      }

      .cls-3 {
        fill: #fd0;
      }
    </style>
  </defs>
  <g id="Щит" transform="translate(-12883.823 -10097)">
    <g id="_1865214945072">
      <path id="Path_1" data-name="Path 1" class="cls-1" d="M12910,10304c304,1,608-65,912-207,304,142,608,208,912,207,137,1146-278,1716-912,1971C13188,12020,12773,11450,12910,10304Z"/>
      <path id="Path_2" data-name="Path 2" class="cls-2" d="M14634,10413c-282-12-553-80-812-194-259,114-530,182-812,194-53,565,18,1182,494,1555,97,76,205,138,318,187,113-49,221-111,318-187C14616,11595,14687,10978,14634,10413Z"/>
      <path id="Path_3" data-name="Path 3" class="cls-3" d="M13822,11197h779c55-253,57-524,33-784-282-12-553-80-812-194v978h-779c65,297,204,570,461,771,97,76,205,138,318,187Z"/>
    </g>
  </g>
</svg>
