<svg xmlns="http://www.w3.org/2000/svg" viewBox="0 0 2093 1862">
  <defs>
    <style>
      .cls-1 {
        fill: #009833;
      }

      .cls-1, .cls-2 {
        fill-rule: evenodd;
      }

      .cls-2 {
        fill: #0093d8;
      }
    </style>
  </defs>
  <g id="Пользователь" transform="translate(-5419 -5334)">
    <g id="_1865214979312">
      <path id="Path_1" data-name="Path 1" class="cls-1" d="M7018,6207c-273,0-494,221-494,495,0,273,221,494,494,494s494-221,494-494C7512,6428,7291,6207,7018,6207Zm-295,566c-28-28-28-75,0-103a73.036,73.036,0,0,1,104,0l134,134,274-345a72.094,72.094,0,0,1,102-12c32,25,37,71,12,103l-322,405c-3,3-5,7-9,10-28,28-74,28-103,0Z"/>
      <path id="Path_2" data-name="Path 2" class="cls-2" d="M6059,6267l-36-44c-91-112-172-264-172-412,0-101,1-206,47-298,68-135,204-179,347-179s279,44,346,179c47,92,48,197,48,298,0,148-81,300-172,412l-36,44,41,40c19,17,48,34,70,47-71,97-113,217-113,348,0,102,26,199,73,283H5505a86.245,86.245,0,0,1-61-25,90.4,90.4,0,0,1-25-62c2-102,34-232,108-306,28-29,68-53,103-73,52-29,106-56,159-83,52-26,104-52,155-80,23-14,54-31,73-49Z"/>
    </g>
  </g>
</svg>
