<svg xmlns="http://www.w3.org/2000/svg" viewBox="0 0 1590.395 2147.05">
  <defs>
    <style>
      .cls-1 {
        fill: #063;
      }

      .cls-1, .cls-2 {
        fill-rule: evenodd;
      }

      .cls-2 {
        fill: #093;
      }
    </style>
  </defs>
  <g id="Якорь" transform="translate(-11230.803 -13599.95)">
    <g id="_1865286304544">
      <path id="Path_1" data-name="Path 1" class="cls-1" d="M12026,14029h-6c-74,0-134-60-134-133a134.008,134.008,0,0,1,134-134c2,0,4,1,6,1,71,3,127,61,127,133C12153,13967,12097,14025,12026,14029Zm631,679c0,152-184,336-184,336l118,6c-25,49-63,98-107,143-120,124-330,41-333-132l-7-367c-1-70,53-128,122-132,68-4,136-10,204-17,39-5,69-38,69-77v-93c0-39-30-72-69-77-72-8-143-14-215-18-74-4-109-94-57-147,4-4,9-8,13-12a291.092,291.092,0,0,0,104-236c-6-156-133-281-289-285h-1c-166-3-301,131-301,296,0,93,43,176,111,231a.979.979,0,0,1,1,1c61,50,28,148-50,153-45,3-90,6-134,10-23,3-47,5-70,7a77.69,77.69,0,0,0-68,77v93c0,39,29,72,69,77,68,7,135,13,203,17,70,4,124,62,122,132l-6,367c-3,173-214,256-334,132-43-45-81-94-107-143l118-6s-184-184-184-336c0,0-191,171-161,447l109-52s52,157,177,282c188,188,414,145,506,362,92-217,319-174,506-362,125-125,178-282,178-282l108,52C12848,14879,12657,14708,12657,14708Z"/>
      <path id="Path_2" data-name="Path 2" class="cls-2" d="M11886,13896c0,73,60,133,134,133h6v1718c-92-217-318-174-506-362-125-125-177-282-177-282l-109,52c-30-276,161-447,161-447,0,152,184,336,184,336l-118,6c26,49,64,98,107,143,120,124,331,41,334-132l6-367c2-70-52-128-122-132-68-4-135-10-203-17-40-5-69-38-69-77v-93a77.69,77.69,0,0,1,68-77c23-2,47-4,70-7,44-4,89-7,134-10,78-5,111-103,50-153a.979.979,0,0,0-1-1c-68-55-111-138-111-231,0-165,135-299,301-296h1v163c-2,0-4-1-6-1A134.008,134.008,0,0,0,11886,13896Z"/>
    </g>
  </g>
</svg>
