<svg xmlns="http://www.w3.org/2000/svg" viewBox="0 0 2487 2215">
  <defs>
    <style>
      .cls-1 {
        fill: #630;
      }

      .cls-1, .cls-2, .cls-3, .cls-4, .cls-5, .cls-6, .cls-7 {
        fill-rule: evenodd;
      }

      .cls-2 {
        fill: #520;
      }

      .cls-3 {
        fill: #8e4700;
      }

      .cls-4 {
        fill: #4d1a00;
      }

      .cls-5 {
        fill: #ffcd00;
      }

      .cls-6 {
        fill: #ffe671;
      }

      .cls-7 {
        fill: #a76019;
      }
    </style>
  </defs>
  <g id="Портфель" transform="translate(-3478 -13301)">
    <g id="_1865286315424">
      <path id="Path_1" data-name="Path 1" class="cls-1" d="M5090,13690c-32,0-58-17-58-39v-155c0-22,26-39,58-39s58,17,58,39v155C5148,13673,5122,13690,5090,13690Z"/>
      <path id="Path_2" data-name="Path 2" class="cls-1" d="M4352,13690c-33,0-59-17-59-39v-155c0-22,26-39,59-39,32,0,58,17,58,39v155C4410,13673,4384,13690,4352,13690Z"/>
      <path id="Path_3" data-name="Path 3" class="cls-1" d="M5849,14623H3595c-22,0-39,17-39,39v660c0,107,87,194,194,194H5693c107,0,195-87,195-194v-660A39.048,39.048,0,0,0,5849,14623Z"/>
      <path id="Path_4" data-name="Path 4" class="cls-2" d="M5888,14715a209.883,209.883,0,0,1-30,15c-323,138-666,215-1017,230H4604c-352-14-695-92-1019-230a159.344,159.344,0,0,1-29-15v-53c0-22,17-39,39-39H5849a39.048,39.048,0,0,1,39,39Z"/>
      <path id="Path_5" data-name="Path 5" class="cls-3" d="M5771,13651H3673a194.611,194.611,0,0,0-195,195v676c0,78,47,148,120,179,320,137,658,213,1007,227h235c347-14,686-90,1006-227,72-31,119-101,119-179v-676C5965,13738,5878,13651,5771,13651Z"/>
      <path id="Path_6" data-name="Path 6" class="cls-4" d="M5188,14506c0-86-70-155-155-155H4411a154.5,154.5,0,0,0-155,155v386a2885.35,2885.35,0,0,0,349,36h235a2889.816,2889.816,0,0,0,348-36Z"/>
      <path id="Path_7" data-name="Path 7" class="cls-5" d="M4761,15050h-78a78.1,78.1,0,0,1-78-78v-155a78.1,78.1,0,0,1,78-78h78c43,0,77,35,77,78v155C4838,15015,4804,15050,4761,15050Z"/>
      <path id="Path_8" data-name="Path 8" class="cls-4" d="M5149,13514a83.292,83.292,0,0,1-22-3c-117-36-257-54-405-54s-288,18-405,54c-41,12-85-11-97-52s11-85,52-97c131-40,287-61,450-61s319,21,450,61c41,12,64,56,52,97C5214,13492,5183,13514,5149,13514Z"/>
      <path id="Path_9" data-name="Path 9" class="cls-6" d="M4798,14739H4643c-21,0-39,18-39,39v78a78.1,78.1,0,0,0,78,78h78c43,0,77-35,77-78v-78A39.048,39.048,0,0,0,4798,14739Z"/>
      <path id="Path_10" data-name="Path 10" class="cls-7" d="M5934,13883v-37a163.029,163.029,0,0,0-163-163H3673a163.029,163.029,0,0,0-163,163v37c0-89,73-162,163-162H5771C5861,13721,5934,13794,5934,13883Z"/>
    </g>
  </g>
</svg>
