<svg xmlns="http://www.w3.org/2000/svg" viewBox="0 0 2269 2269">
  <defs>
    <style>
      .cls-1 {
        fill: #f59e22;
      }

      .cls-1, .cls-2, .cls-3, .cls-4, .cls-5, .cls-6 {
        fill-rule: evenodd;
      }

      .cls-2 {
        fill: #fefefe;
      }

      .cls-3 {
        fill: #2f2c2a;
      }

      .cls-4 {
        fill: #e6343d;
      }

      .cls-5 {
        fill: #5d5653;
      }

      .cls-6 {
        fill: #847c79;
      }
    </style>
  </defs>
  <g id="Часы" transform="translate(-10083 -13426)">
    <g id="_1865215177920">
      <path id="Path_1" data-name="Path 1" class="cls-1" d="M11218,13426c626,0,1134,508,1134,1134,0,627-508,1135-1134,1135-627,0-1135-508-1135-1135C10083,13934,10591,13426,11218,13426Z"/>
      <path id="Path_2" data-name="Path 2" class="cls-2" d="M11218,13641c507,0,919,411,919,919s-412,920-919,920c-508,0-920-412-920-920S10710,13641,11218,13641Z"/>
      <path id="Path_3" data-name="Path 3" class="cls-3" d="M11602,14298a86.267,86.267,0,0,0-122-122l-326,326,121,122Z"/>
      <path id="Path_4" data-name="Path 4" class="cls-4" d="M11165,14536l-484,484c-21,21-21,56,0,77a57.259,57.259,0,0,0,38,15c14,0,28-5,38-15l484-485Z"/>
      <path id="Path_5" data-name="Path 5" class="cls-3" d="M10841,14062a86.267,86.267,0,0,0-122,122l441,440,121-122Z"/>
      <path id="Path_6" data-name="Path 6" class="cls-5" d="M11218,14695c-75,0-135-61-135-135s60-134,135-134a134.008,134.008,0,0,1,134,134C11352,14634,11292,14695,11218,14695Z"/>
      <path id="Path_7" data-name="Path 7" class="cls-6" d="M10594,14614h-81a53.775,53.775,0,0,1-54-54c0-29,24-53,54-53h81a53.351,53.351,0,0,1,53,53C10647,14590,10623,14614,10594,14614Z"/>
      <path id="Path_8" data-name="Path 8" class="cls-6" d="M11218,13990a53.775,53.775,0,0,1-54-54v-80a53.775,53.775,0,0,1,54-54c29,0,53,24,53,54v80C11271,13966,11247,13990,11218,13990Z"/>
      <path id="Path_9" data-name="Path 9" class="cls-6" d="M11922,14614h-81c-29,0-53-24-53-54a53.351,53.351,0,0,1,53-53h81c30,0,54,24,54,53A53.775,53.775,0,0,1,11922,14614Z"/>
      <path id="Path_10" data-name="Path 10" class="cls-6" d="M11218,15319a53.775,53.775,0,0,1-54-54v-81a53.775,53.775,0,0,1,54-54c29,0,53,24,53,54v81C11271,15295,11247,15319,11218,15319Z"/>
    </g>
  </g>
</svg>
